{
	"browserSyncOptions": {
		"proxy": "roche.local",
		"notify": false,
		"port": 3004
	},
	"browserSyncWatchFiles": ["./css/*.min.css", "./js/*.min.js", "./**/*.php"],
	"paths": {
		"js": "./js",
		"css": "./css",
		"img": "./img",
		"imgsrc": "./src/img",
		"sass": "./sass",
		"node": "./node_modules/",
		"bower": "./bower_components/",
		"dev": "./src",
		"dist": "./dist",
		"distprod": "./dist-product",
		"vendor": ""
	}
}
